{
  "name": "ng2-app",
  "dependencies": {
    "es6-promise": "registry:npm/es6-promise#3.0.0+20160723033700"
  },
  "globalDependencies": {
    "es6-shim": "registry:dt/es6-shim#0.31.2+20160602141504",
    "meteor": "registry:env/meteor#1.3.0+20160713172414"
  }
}
